{
  "name": "logistics-reactor-next",
  "version": "6.0.0",
  "title": "Logistics Reactor Next",
  "description": "Deliver nuclear fuel by bot. Update of illysune's Logistics Reactor.",
  "author": "alleledev, Kryzeth",
  "contact": "allele.dev@gmail.com",
  "homepage": "",
  "factorio_version": "1.1",
  "dependencies": [
    "base >= 1.0",
    "? bobpower >= 1.0.0",
    "? boblogistics >= 1.0.0"
  ],
  "license": "GPL 3"
}
